alz • alz
…
derived: computed from analytes (e.g. Aβ42/Aβ40 ratio, p-tau217 /
non-p-tau217)

imaging-based: e.g. amyloid PET, FDG PET

Each biomarker is mapped to:

a category: core, non-specific, co-pathology

a subcategory: A, T1, T2, N, I, V, S

a modality: fluid, imaging, or hybrid

biomarkers()
#> # A tibble: 22 × 9
#>    bmk_id            bmk_name bmk_category bmk_subcategory bmk_modality bmk_type
#>    <chr>             <chr>    <chr>        <chr>           <chr>        <chr>   
#>  1 ab40              Aβ40     core         A               fluid        original
#>  2 ab42              Aβ42     core         A               fluid        original
#>  3 ab42-ab40-ratio   Aβ42 / … core         A               fluid        derived 
#>  4 amyloid_pet       Amyloid… core         A               imaging      original
#>  5 t-tau             Total t… core         T1              fluid        original
#>  6 ptau217           p-tau217 core         T1              fluid        original
#>  7 ptau181           p-tau181 core         T1              fluid        original
#>  8 ptau231           p-tau231 core         T1              fluid        original
#>  9 ptau181-ab42-rat… p-tau18… core         T1              fluid        derived 
#> 10 ptau217-np217-ra… p-tau21… core         T1              fluid        derived 
#> # ℹ 12 more rows
#> # ℹ 3 more variables: analyte_ids <list>, bmk_desc <chr>, notes <lgl>
…
